{
    "name": "GO",
    "references": [
        "Network",
        "Interfaces"
    ],
    "optionalUnityReferences": [],
    "includePlatforms": [],
    "excludePlatforms": [],
    "allowUnsafeCode": false
}